word,number_count
pessoas,59
coisas,52
física,42
dados,42
essa,39
então,38
todos,38
anos,38
pode,38
inteligência,37
forma,35
sobre,35
mundo,35
tecnologia,33
eles,32
nossa,31
(risos),30
podemos,30
aqui,28
criar,28
artificial,28
vida,27
esses,26
cada,26
estamos,25
temos,24
tudo,24
podem,24
algo,23
parte,22
nosso,22
tempo,21
apenas,21
minha,20
essas,20
imagens,20
música,20
exemplo,19
diferentes,19
antes,18
momento,18
humano,18
pela,17
realmente,17
primeira,17
hoje,17
agora,17
muitas,16
(aplausos),16
ajudar,16
alguns,15
imagem,15
onde,15
qualquer,15
meio,15
qual,15
suas,15
vezes,15
learning,15
significa,14
grandes,14
história,14
entre,14
vamos,14
deep,14
aprender,14
maior,14
passado,14
sítios,14
máquina,14
real,13
todas,13
tecnologias,13
padrões,13
sempre,13
memória,13
humanos,13
empresas,13
importante,12
todo,12
elas,12
quem,12
sistemas,12
modo,12
pelo,12
humana,12
egito,12
milhões,12
saques,12
modelo,12
pensar,11
esta,11
disso,11
nova,11
pois,11
nossos,11
irão,11
será,11
artificiais,11
força,11
